{
  "data": [
    {
      "uuid": "uuid_colors_tagFamily",
      "name": "colors",
      "description": "A set of color tags",
      "count": 5,
      "perms": [
        "read",
        "update",
        "delete",
        "create"
      ]
    },
    {
      "uuid": "uuid_vehicleType_tagFamily",
      "name": "vehicle type",
      "description": "The available types of vehicle",
      "count": 5,
      "perms": [
        "read",
        "update",
        "delete",
        "create"
      ]
    }
  ],
  "_metainfo": {
    "page": 1,
    "per_page": 2,
    "page_count": 10,
    "total_count": 20
  }
}