{
  "data" : [ {
    "@class" : "com.gentics.mesh.core.rest.group.response.GroupResponse",
    "uuid" : "uuid_editors_group",
    "name" : "editors",
    "roles" : [ {
      "name": "Create Content",
      "uuid": "uuid_create_content_role"
     }, {
      "name": "Update Content",
      "uuid": "uuid_update_content_role"
     }, {
      "name": "File Upload",
      "uuid": "uuid_file_upload_role"
     } ],
    "users" : [ ],
    "perms" : [ "READ", "UPDATE", "DELETE", "CREATE" ]
  }, {
    "@class" : "com.gentics.mesh.core.rest.group.response.GroupResponse",
    "uuid" : "uuid_administrators_group",
    "name" : "administrators",
    "roles" : [ {
      "name": "Create Content",
      "uuid": "uuid_create_content_role"
    }, {
      "name": "Update Content",
      "uuid": "uuid_update_content_role"
    }, {
      "name": "File Upload",
      "uuid": "uuid_file_upload_role"
    },{
      "name": "Administer Users",
      "uuid": "uuid_administer_users_role"
    },{
      "name": "Administer Schemas",
      "uuid": "uuid_administer_schemas_role"
    }],
    "users" : [ ],
    "perms" : [ "READ", "UPDATE", "DELETE", "CREATE" ]
  }, {
    "@class" : "com.gentics.mesh.core.rest.group.response.GroupResponse",
    "uuid" : "uuid_translators_group",
    "name" : "translators",
    "roles" : [{
      "name": "Update Content",
      "uuid": "uuid_update_content_role"
    }],
    "users" : [ ],
    "perms" : [ "READ", "UPDATE", "DELETE", "CREATE" ]
  } , {
    "@class" : "com.gentics.mesh.core.rest.group.response.GroupResponse",
    "uuid" : "uuid_superadmin_group",
    "name" : "superadmin",
    "roles" : [{
      "name": "God Mode",
      "uuid": "uuid_god_mode_role"
    }],
    "users" : [ ],
    "perms" : [ "READ", "UPDATE", "DELETE", "CREATE" ]
  } ],
  "_metainfo" : {
    "page" : 1,
    "per_page" : 2,
    "page_count" : 10,
    "total_count" : 20
  }
}